[
  "Alfie",
  "Angel",
  "Azuki",
  "Baby",
  "Bella",
  "Birba",
  "Blackie",
  "Blacky",
  "Briciola",
  "Buddy",
  "Caramel",
  "Casper",
  "Chai",
  "Chanel",
  "Charlie",
  "Charlotte",
  "Charly",
  "Chibi",
  "Chicco",
  "Chiro",
  "Chloe",
  "Chobi",
  "Cleo",
  "Coco",
  "Daisy",
  "Eve",
  "Felix",
  "Fluffy",
  "Fraidy",
  "Fuku",
  "Félix",
  "Ginger",
  "Grisou",
  "Hana",
  "Haru",
  "Hime",
  "Jack",
  "Jasper",
  "Jiji",
  "Kai",
  "Kinako",
  "Kitty",
  "Koko",
  "Kotetsu",
  "Kuro",
  "Kurumi",
  "Lala",
  "Leo",
  "Lily",
  "Lisa",
  "Lucky",
  "Lucy",
  "Luna",
  "Maggie",
  "Maron",
  "Maru",
  "Max",
  "Mei",
  "Micio",
  "Mikan",
  "Millie",
  "Milo",
  "Mimi",
  "Minette",
  "Minka",
  "Minou",
  "Minto",
  "Minù",
  "Miruku",
  "Missy",
  "Misty",
  "Moka",
  "Molly",
  "Momo",
  "Moony",
  "Moritz",
  "Muffin",
  "Muschi",
  "Oliver",
  "Oreo",
  "Oscar",
  "Pacha",
  "Pallina",
  "Patch",
  "Patches",
  "Poppy",
  "Princess",
  "Puss",
  "Rin",
  "Romeo",
  "Sacha",
  "Sakura",
  "Sam",
  "Samantha",
  "Sammy",
  "Sassy",
  "Scaredy",
  "Shadow",
  "Shiro",
  "Simba",
  "Simon",
  "Smokey",
  "Smudge",
  "Sooty",
  "Sophie",
  "Sora",
  "Sushi",
  "Sylvester",
  "Tama",
  "Ti-Mine",
  "Tiger",
  "Tigger",
  "Tom",
  "Tora",
  "Trilly",
  "Whiskers",
  "Yuki"
]
